o001aa111|Camry|Black|133|820
o002aa111|Camry|Green|133|670
o004aa67|Avensis|Yellow|250|750
o003aa98|Golf|Red|250|250
o006aa35|Niva|White|110|110
o100aa45|Vesta|Orange|220|730
o003aa123|Yaris|Black|250|250
b007xx|Zaporogets|Green|0|1000